{
  "project_info": {
    "project_number": "815660322060",
    "firebase_url": "https://demoproject-99dd0-default-rtdb.firebaseio.com",
    "project_id": "demoproject-99dd0",
    "storage_bucket": "demoproject-99dd0.appspot.com"
  },
  "client": [
    {
      "client_info": {
        "mobilesdk_app_id": "1:815660322060:android:7fcdc301b28ea27497cd29",
        "android_client_info": {
          "package_name": "com.mtopchyi.FireBaseDemo"
        }
      },
      "oauth_client": [
        {
          "client_id": "815660322060-uijasa1m3m9au4efm0agv95vclf1t904.apps.googleusercontent.com",
          "client_type": 3
        }
      ],
      "api_key": [
        {
          "current_key": "AIzaSyBiueBhC9RQWan0xku8qE5dv-D_LYiL_-4"
        }
      ],
      "services": {
        "appinvite_service": {
          "other_platform_oauth_client": [
            {
              "client_id": "815660322060-uijasa1m3m9au4efm0agv95vclf1t904.apps.googleusercontent.com",
              "client_type": 3
            }
          ]
        }
      }
    }
  ],
  "configuration_version": "1"
}